counter_tb_extended.vcd
$date
	Sat Apr 29 09:34:13 2017
$end
$version
	Icarus Verilog
$end
$timescale
	1s
$end
$scope module counter_tb $end
$var wire 1 a out[0] $end
$var wire 1 b out[1] $end
$var reg 1 " clock $end
$var reg 1 # enable $end
$var reg 1 $ reset $end
$scope module top $end
$var wire 1 " clock $end
$var wire 1 # enable $end
$var wire 1 $ reset $end
$var reg 1 c out[0] $end
$var reg 1 d out[1] $end
$upscope $end
$upscope $end
$enddefinitions $end
#0
$dumpvars
0a
0b
0c
0d
0$
0#
1"
$end
#1
0"
1$
#2
0a
0b
0c
0d
1"
#3
0"
0$
#4
1"
#5
0"
1#
#6
1a
0b
1c
0d
1"
#7
0"
#8
0a
1b
0c
1d
1"
#9
0"
#10
1a
1b
1c
1d
1"
#11
0"
#12
0a
0b
0c
0d
1"
#13
0"
#14
1a
0b
1c
0d
1"
#15
0"
#16
0a
1b
0c
1d
1"
#17
0"
#18
1a
1b
1c
1d
1"
#19
0"
#20
0a
0b
0c
0d
1"
#21
0"
#22
1a
0b
1c
0d
1"
#23
0"
#24
0a
1b
0c
1d
1"
#25
0"
0#
